Vetting popler • rOpenSci: popler
…
Geographic location.

Vetting the database based on these criteria is intuitive. However, popler also facilitates identifying data sets in other ways. Below we provide several examples on how to select LTER data based on the four types of features described above. Moreover, in the final section we also show how to carry out more complicated types of searches.

1. Replication

Temporal replication

If you are interested in long-term data, you will likely want to select projects based on how many years the data was collected for. This is straightforward:

library(popler)
pplr_browse(duration_years > 10)

## # A tibble: 163 x 20
## # Groups:   title, proj_metadata_key, lterid, datatype, structured_data,
## #   studytype, duration_years, community, studystartyr, studyendyr,
## #   structured_type_1, structured_type_2, structured_type_3, structured_type_4,
## #   treatment_type_1, treatment_type_2, treatment_type_3, lat_lter, lng_lter
## #   [163]
##    title              proj_metadata_k… lterid datatype structured_data studytype
##  * <chr>                         <int> <chr>  <chr>    <chr>           <chr>    
##  1 SBC LTER: Reef: K…                1 SBC    individ… no              obs      
##  2 SBC LTER: Reef: K…                2 SBC    count    no              obs      
##  3 SBC LTER: Reef: K…                3 SBC    count    yes             obs      
##  4 SBC LTER: Reef: K…                4 SBC    cover    no              obs      
##  5 SBC LTER: Time se…               12 SBC    density  no              obs      
##  6 SBC LTER: Santa C…               13 SBC    count    no              obs      
##  7 SBC LTER: Santa C…               14 SBC    cover    no              obs      
##  8 SBC LTER: Santa C…               15 SBC    biomass  no              obs      
##  9 SBC LTER: Reef: H…               17 SBC    biomass  no              obs      
## 10 Long-Term Core Si…               21 SEV    count    yes             obs      
## # … with 153 more rows, and 14 more variables: duration_years <int>,
## #   community <chr>, studystartyr <chr>, studyendyr <chr>,
## #   structured_type_1 <chr>, structured_type_2 <chr>, structured_type_3 <chr>,
## #   structured_type_4 <chr>, treatment_type_1 <chr>, treatment_type_2 <chr>,
## #   treatment_type_3 <chr>, lat_lter <dbl>, lng_lter <dbl>, taxas <named list>
…
Before downloading data

If you wish to select data sets based on their spatial replication, you need to consider that popler organizes data in nested spatial levels. For example, in many plant studies data is collected at the plot level, which can be nested within block, which in turn can be nested within site. popler labels spatial levels using numbers. Spatial level 1 is the coarsest level of replication which contains all other spatial replicates. In the example above, spatial level 1 is site, spatial level 2 is block, and spatial level 3 is plot. popler allows for a total of 5 spatial levels. Given the above, you can select studies based on three criteria:

The total number of spatial replicates.

The number of replicates within a specific spatial level.

The number of nested spatial replicates.

Below we provide three examples for each one of these respective cases.

pplr_browse(tot_spat_rep > 100)

## # A tibble: 158 x 20
## # Groups:   title, proj_metadata_key, lterid, datatype, structured_data,
## #   studytype, duration_years, community, studystartyr, studyendyr,
## #   structured_type_1, structured_type_2, structured_type_3, structured_type_4,
## #   treatment_type_1, treatment_type_2, treatment_type_3, lat_lter, lng_lter
## #   [158]
##    title              proj_metadata_k… lterid datatype structured_data studytype
##  * <chr>                         <int> <chr>  <chr>    <chr>           <chr>    
##  1 SBC LTER: Reef: K…                1 SBC    individ… no              obs      
##  2 SBC LTER: Reef: K…                2 SBC    count    no              obs      
##  3 SBC LTER: Reef: K…                3 SBC    count    yes             obs      
##  4 SBC LTER: Reef: L…                5 SBC    individ… no              exp      
##  5 SBC LTER: Reef: L…                6 SBC    count    yes             exp      
##  6 SBC LTER: Reef: L…                7 SBC    count    no              exp      
##  7 SBC LTER: Time se…               12 SBC    density  no              obs      
##  8 SBC LTER: Santa C…               13 SBC    count    no              obs      
##  9 SBC LTER: Santa C…               14 SBC    cover    no              obs      
## 10 SBC LTER: Santa C…               15 SBC    biomass  no              obs      
## # … with 148 more rows, and 14 more variables: duration_years <int>,
## #   community <chr>, studystartyr <chr>, studyendyr <chr>,
## #   structured_type_1 <chr>, structured_type_2 <chr>, structured_type_3 <chr>,
## #   structured_type_4 <chr>, treatment_type_1 <chr>, treatment_type_2 <chr>,
## #   treatment_type_3 <chr>, lat_lter <dbl>, lng_lter <dbl>, taxas <named list>
…
pplr_browse(n_spat_levs == 3)

## # A tibble: 96 x 20
## # Groups:   title, proj_metadata_key, lterid, datatype, structured_data,
## #   studytype, duration_years, community, studystartyr, studyendyr,
## #   structured_type_1, structured_type_2, structured_type_3, structured_type_4,
## #   treatment_type_1, treatment_type_2, treatment_type_3, lat_lter, lng_lter
## #   [96]
##    title              proj_metadata_k… lterid datatype structured_data studytype
##  * <chr>                         <int> <chr>  <chr>    <chr>           <chr>    
##  1 SBC LTER: Santa C…               13 SBC    count    no              obs      
##  2 SBC LTER: Santa C…               15 SBC    biomass  no              obs      
##  3 SBC LTER: Santa C…               16 SBC    count    no              obs      
##  4 Long-Term Core Si…               21 SEV    count    yes             obs      
##  5 Rodent Parasite D…               25 SEV    count    yes             obs      
##  6 Burn Exclosure Ro…               28 SEV    individ… no              exp      
##  7 Nitrogen Fertiliz…               29 SEV    cover    no              exp      
##  8 Pino Gate Prairie…               33 SEV    count    no              obs      
##  9 Warming-El Nino-N…               34 SEV    cover    no              exp      
## 10 Livestock Exclosu…               35 SEV    cover    no              exp      
## # … with 86 more rows, and 14 more variables: duration_years <int>,
## #   community <chr>, studystartyr <chr>, studyendyr <chr>,
## #   structured_type_1 <chr>, structured_type_2 <chr>, structured_type_3 <chr>,
## #   structured_type_4 <chr>, treatment_type_1 <chr>, treatment_type_2 <chr>,
## #   treatment_type_3 <chr>, lat_lter <dbl>, lng_lter <dbl>, taxas <named list>
…
## # A tibble: 7 x 8
##   sppcode species     kingdom  phylum     class   order        family   genus   
##   <chr>   <chr>       <chr>    <chr>      <chr>   <chr>        <chr>    <chr>   
## 1 cune    neomexicana Animalia Arthropoda Insecta Diptera      Oestrid… Cutereb…
## 2 cune    neomexicana Animalia Arthropoda Insecta Diptera      Oestrid… Cutereb…
## 3 cuau    austeni     Animalia Arthropoda Insecta Diptera      Oestrid… Cutereb…
## 4 flea    sp          Animalia Arthropoda Insecta Siphonaptera NA       NA      
## 5 cuau    austeni     Animalia Arthropoda Insecta Diptera      Oestrid… Cutereb…
## 6 flea    sp          Animalia Arthropoda Insecta Siphonaptera NA       NA      
## 7 cusp    species     Animalia Arthropoda Insecta Diptera      Oestrid… Cutereb…

# second table (etc.)
insects$taxas[[2]]

## # A tibble: 205 x 8
##    sppcode  species   kingdom  phylum     class   order     family     genus    
##    <chr>    <chr>     <chr>    <chr>      <chr>   <chr>     <chr>      <chr>    
##  1 ANPERPUL NA        Animalia Arthropoda Insecta Hymenopt… NA         NA       
##  2 APHABMOR morrisoni Animalia Arthropoda Insecta Hymenopt… APIDAE     Habropoda
##  3 HAAGAANG angelicus Animalia Arthropoda Insecta Hymenopt… HALICTIDAE Agaposte…
##  4 APDIAENA NA        Animalia Arthropoda Insecta Hymenopt… NA         NA       
##  5 MEOSMTIT titusi    Animalia Arthropoda Insecta Hymenopt… MEGACHILI… Osmia    
##  6 ANPER005 5         Animalia Arthropoda Insecta Hymenopt… ANDRENIDAE Perdita  
##  7 HALASCOA NA        Animalia Arthropoda Insecta Hymenopt… NA         NA       
##  8 APTETALB NA        Animalia Arthropoda Insecta Hymenopt… NA         NA       
##  9 APANTPHE NA        Animalia Arthropoda Insecta Hymenopt… NA         NA       
## 10 HASPH002 2         Animalia Arthropoda Insecta Hymenopt… HALICTIDAE Sphecodes
## # … with 195 more rows
…
community: indicates whether the project provides data on multiple species. Options are yes or no.

structured_data: indicates whether the project provides information on population structure. For example, a population can be sub-divided in age, size, or developmental classes. Options are yes or no.

Below we show how to use these three fields.

pplr_dictionary(community)

## $`community (NA)`
## [1] "no"  "yes"

pplr_browse(community == "no") # 20 single-species studies

## # A tibble: 43 x 20
## # Groups:   title, proj_metadata_key, lterid, datatype, structured_data,
## #   studytype, duration_years, community, studystartyr, studyendyr,
## #   structured_type_1, structured_type_2, structured_type_3, structured_type_4,
## #   treatment_type_1, treatment_type_2, treatment_type_3, lat_lter, lng_lter
## #   [43]
##    title              proj_metadata_k… lterid datatype structured_data studytype
##  * <chr>                         <int> <chr>  <chr>    <chr>           <chr>    
##  1 SBC LTER: Reef: K…                1 SBC    individ… no              obs      
##  2 SBC LTER: Reef: L…                5 SBC    individ… no              exp      
##  3 SBC LTER: Santa C…               16 SBC    count    no              obs      
##  4 SBC LTER: Reef: H…               17 SBC    biomass  no              obs      
##  5 SBC LTER: Reef: S…               18 SBC    count    yes             obs      
##  6 Population Ecolog…               44 SEV    individ… no              obs      
##  7 Gunnison's Prairi…               47 SEV    individ… no              exp      
##  8 SGS-LTER Long-Ter…               84 SGS    individ… no              obs      
##  9 Density of Seagra…               90 VCR    density  no              exp      
## 10 Spruce Seedling D…              158 BNZ    individ… no              exp      
## # … with 33 more rows, and 14 more variables: duration_years <int>,
## #   community <chr>, studystartyr <chr>, studyendyr <chr>,
## #   structured_type_1 <chr>, structured_type_2 <chr>, structured_type_3 <chr>,
## #   structured_type_4 <chr>, treatment_type_1 <chr>, treatment_type_2 <chr>,
## #   treatment_type_3 <chr>, lat_lter <dbl>, lng_lter <dbl>, taxas <named list>
…
To select studies based on the latitude and longitude of LTER headquarters around which datasets were, or are being collected, simply use the lat_lter and lng_lter numeric variables:

pplr_dictionary( lat_lter, lng_lter )

## $`lat_lter (NA)`
##      Min.   1st Qu.    Median      Mean   3rd Qu.      Max. 
## -77.00000  33.43000  39.09000  35.65512  45.40000  66.63000 
## 
## $`lng_lter (NA)`
##      Min.   1st Qu.    Median      Mean   3rd Qu.      Max. 
## -149.8300 -119.8400 -106.7400 -103.4849  -93.2000  162.5200

pplr_browse( lat_lter > 40 & lng_lter < -100 ) # single-species studies

## # A tibble: 58 x 20
## # Groups:   title, proj_metadata_key, lterid, datatype, structured_data,
## #   studytype, duration_years, community, studystartyr, studyendyr,
## #   structured_type_1, structured_type_2, structured_type_3, structured_type_4,
## #   treatment_type_1, treatment_type_2, treatment_type_3, lat_lter, lng_lter
## #   [58]
##    title              proj_metadata_k… lterid datatype structured_data studytype
##  * <chr>                         <int> <chr>  <chr>    <chr>           <chr>    
##  1 SGS-LTER Long-Ter…               63 SGS    cover    no              obs      
##  2 SGS-LTER Standard…               65 SGS    biomass  no              obs      
##  3 Open Top Chamber …               66 SGS    cover    no              exp      
##  4 SGS-LTER Boutelou…               69 SGS    count    no              exp      
##  5 SGS-LTER Boutelou…               70 SGS    cover    no              exp      
##  6 SGS-LTER Disturba…               71 SGS    cover    no              exp      
##  7 SGS-LTER Ecosyste…               72 SGS    count    no              exp      
##  8 SGS-LTER Ecosyste…               73 SGS    basal_c… no              exp      
##  9 SGS-LTER Effects …               74 SGS    cover    no              exp      
## 10 SGS-LTER Effects …               76 SGS    count    no              exp      
## # … with 48 more rows, and 14 more variables: duration_years <int>,
## #   community <chr>, studystartyr <chr>, studyendyr <chr>,
## #   structured_type_1 <chr>, structured_type_2 <chr>, structured_type_3 <chr>,
## #   structured_type_4 <chr>, treatment_type_1 <chr>, treatment_type_2 <chr>,
## #   treatment_type_3 <chr>, lat_lter <dbl>, lng_lter <dbl>, taxas <named list>
…
